%YAML 1.1
%TAG !u! tag:unity3d.com,2011:
--- !u!114 &11400000
MonoBehaviour:
  m_ObjectHideFlags: 0
  m_CorrespondingSourceObject: {fileID: 0}
  m_PrefabInstance: {fileID: 0}
  m_PrefabAsset: {fileID: 0}
  m_GameObject: {fileID: 0}
  m_Enabled: 1
  m_EditorHideFlags: 0
  m_Script: {fileID: 11500000, guid: bd0c84d0a3d93438fb08846f7cc653b6, type: 3}
  m_Name: AnyColor
  m_EditorClassIdentifier: 
  type: 3
  color: {r: 1, g: 0.60249305, b: 0, a: 1}
  material: {fileID: 2100000, guid: 79ace3a788d9d4f27b10bcc8c2d0a942, type: 2}
  frames_per_rotate: 5
