%YAML 1.1
%TAG !u! tag:unity3d.com,2011:
--- !u!114 &11400000
MonoBehaviour:
  m_ObjectHideFlags: 0
  m_CorrespondingSourceObject: {fileID: 0}
  m_PrefabInstance: {fileID: 0}
  m_PrefabAsset: {fileID: 0}
  m_GameObject: {fileID: 0}
  m_Enabled: 1
  m_EditorHideFlags: 0
  m_Script: {fileID: 11500000, guid: bd0c84d0a3d93438fb08846f7cc653b6, type: 3}
  m_Name: Green
  m_EditorClassIdentifier: 
  type: 1
  color: {r: 0, g: 1, b: 0, a: 1}
  material: {fileID: 2100000, guid: e43c613159ae9412bad81a9435e55f5b, type: 2}
